Device,dtype,Size,GFLOPS,Time,Repetitions
cpu,float64,512,245.75863892406784,10.000848987023346,9156
cpu,float64,1024,288.0547962659232,10.004773720051162,1342
cpu,float64,2048,352.46095066668806,10.040979136014357,206
cpu,float64,4096,416.8103021639557,10.22193438000977,31
cpu,float64,8192,467.75791798898877,11.752998564974405,5
cpu,float64,10240,471.74311855256184,13.656692998018116,3
cpu,float32,512,974.4064578971321,10.0001462160144,36300
cpu,float32,1024,942.4083491532433,10.001296931994148,4389
cpu,float32,2048,827.0786484221138,10.011982491007075,482
cpu,float32,4096,886.2703254277874,10.079917739960365,65
cpu,float32,8192,943.1766205104532,10.491783229983412,9
cpu,float32,10240,959.3994926121751,11.191811464028433,5
cpu,float16,512,2.5953280309893523,10.032735330983996,97
cpu,float16,1024,1.1844670822277037,10.878227078937925,6
cpu,float16,2048,0.3808856747461056,45.105054674088024,1
cpu,float16,4096,0.3596891063040807,382.10485406196676,1
cpu,float16,8192,0.26669522647562977,4122.727063045022,1
cpu,bfloat16,512,1085.5022057328122,10.000220495043322,40439
cpu,bfloat16,1024,1652.996047137388,10.000827981973998,7698
cpu,bfloat16,2048,2022.5034244584751,10.006354329991154,1178
cpu,bfloat16,4096,1864.916011468785,10.02280936902389,136
cpu,bfloat16,8192,1384.1999174691546,10.326291008037515,13
cpu,bfloat16,10240,1575.5870270379405,10.90378943795804,8
cpu,TF32,512,544.5275775633644,10.000378097989596,20286
cpu,TF32,1024,533.1403224425072,10.001498055062257,2483
cpu,TF32,2048,605.8247654763759,10.01031018793583,353
cpu,TF32,4096,710.4693340845838,10.059301982051693,52
cpu,TF32,8192,653.246438630286,10.098898940021172,6
cpu,TF32,10240,661.0935047029125,12.993524412042461,4
cuda:0,float64,512,519.5435476311875,10.000255560036749,19355
cuda:0,float64,1024,621.0765949864664,10.00306603696663,2893
cuda:0,float64,2048,625.1659949857055,10.0028991230065,364
cuda:0,float64,4096,635.533832387261,10.164102183072828,47
cuda:0,float64,8192,643.4373875117395,10.252854270976968,6
cuda:0,float64,10240,645.1465396944072,13.314703037962317,4
cuda:0,float32,512,7356.023665617938,10.000027881003916,274034
cuda:0,float32,1024,20854.532792282083,10.000052943010814,97112
cuda:0,float32,2048,29504.71392922888,10.000580040970817,17175
cuda:0,float32,4096,31496.624171249146,10.001391883939505,2292
cuda:0,float32,8192,32058.50989541692,10.014732324052602,292
cuda:0,float32,10240,30837.628294537633,10.027932185912505,144
cuda:0,float16,512,9601.900028767297,10.000009778072126,357699
cuda:0,float16,1024,46757.32909388462,10.00001007807441,217731
cuda:0,float16,2048,79455.97052973066,10.000116346986033,46250
cuda:0,float16,4096,89338.51104103462,10.001181193976663,6501
cuda:0,float16,8192,90066.18470775247,10.010411096038297,820
cuda:0,float16,10240,91016.02905804827,10.00409572001081,424
cuda:0,bfloat16,512,9472.582912784483,10.000022322987206,352882
cuda:0,bfloat16,1024,46726.19609824682,10.00000890402589,217586
cuda:0,bfloat16,2048,79483.4427877874,10.00011826097034,46266
cuda:0,bfloat16,4096,89339.15540363095,10.00110906001646,6501
cuda:0,bfloat16,8192,89894.9088774151,10.005021671997383,818
cuda:0,bfloat16,10240,76994.96099431302,10.012949155061506,359
cuda:0,TF32,512,6996.784475040281,10.000017907004803,260651
cuda:0,TF32,1024,21471.396733517584,10.000001757056452,99984
cuda:0,TF32,2048,30207.03842361134,10.000107777072117,17583
cuda:0,TF32,4096,33996.25033251579,10.001808068947867,2474
cuda:0,TF32,8192,34223.36473126917,10.023784352000803,312
cuda:0,TF32,10240,34776.866110181996,10.003556671086699,162
